<svg width="60" height="60" viewBox="0 0 60 60" fill="none" xmlns="http://www.w3.org/2000/svg">
<path d="M16.8866 3.33301C12.0994 3.33301 8.20483 7.2275 8.20483 12.0147C8.20483 16.8018 12.0994 20.6964 16.8866 20.6964C21.6737 20.6964 25.5683 16.802 25.5683 12.0147C25.5682 7.2275 21.6737 3.33301 16.8866 3.33301ZM16.8866 18.7671C13.1634 18.7671 10.1341 15.738 10.1341 12.0146C10.1341 8.29121 13.1633 5.26215 16.8866 5.26215C20.6098 5.26215 23.639 8.29121 23.639 12.0146C23.639 15.738 20.6097 18.7671 16.8866 18.7671Z" fill="#FF4847"/>
<path d="M16.7687 22.4975L11.1738 20.9102V28.8408L16.7687 27.3637L22.3636 28.8408V20.9102L16.7687 22.4975ZM20.4343 26.3362L16.7687 25.3684L13.1031 26.3362V23.463L16.7687 24.5029L20.4343 23.463V26.3362Z" fill="#FF4847"/>
<path d="M43.3282 25.0523L37.2189 31.1614L31.5109 25.4534C30.3568 24.2995 28.823 23.6641 27.1908 23.6641C27.1908 23.6641 27.19 23.6641 27.1896 23.6641L24.4858 23.6646L24.4863 25.5939L27.19 25.5933H27.1909C28.3075 25.5933 29.3572 26.0281 30.1466 26.8176L37.2186 33.8896L44.1268 26.9814H48.1749L37.1228 39.2886L28.3441 31.3409V58.0705H9.05155V46.8273H10.9595V55.702H22.5565V46.8273H27.3797V39.3031H22.5565V38.3386H10.9595V39.3031H9.05167V33.5155H7.12241V41.2325H10.9595V44.8982H9.05167H8.0871H3.87433V29.7775C3.87433 27.4731 5.74909 25.598 8.05347 25.5974L8.053 23.6682C4.68503 23.669 1.94507 26.4095 1.94507 29.7775V46.8273H7.12253V59.9999H30.2736V35.6901L37.2642 42.0189L52.5008 25.0523H43.3282ZM22.5565 41.2325H25.4504V44.8982H22.5565V41.2325ZM12.8887 40.268H20.6272V53.7728H12.8887V40.268Z" fill="#FF4847"/>
<path d="M56.5452 22.0044C56.0812 16.5179 51.6984 12.1348 46.2222 11.6886V10.043H44.293V11.6964C38.8569 12.1809 34.5173 16.5468 34.0557 22.0044H32.4602V23.9337H34.0143H56.5866H58.0551V22.0044H56.5452ZM35.9925 22.0044C36.4755 17.2788 40.4656 13.58 45.3003 13.58C50.135 13.58 54.1251 17.2789 54.6083 22.0044H35.9925Z" fill="#FF4847"/>
<path d="M38.4407 20.9755H40.3699C40.3699 18.8752 42.072 17.1666 44.1641 17.1666V15.2373C41.0083 15.2373 38.4407 17.8114 38.4407 20.9755Z" fill="#FF4847"/>
<path d="M57.2838 4.05176H55.3545V5.98102H57.2838V4.05176Z" fill="#FF4847"/>
<path d="M57.2838 11.7686H55.3545V13.5049H57.2838V11.7686Z" fill="#FF4847"/>
<path d="M57.2838 7.91016H55.3545V9.83941H57.2838V7.91016Z" fill="#FF4847"/>
<path d="M53.618 5.98047H51.6887V7.90973H53.618V5.98047Z" fill="#FF4847"/>
<path d="M53.618 2.12207H51.6887V4.05133H53.618V2.12207Z" fill="#FF4847"/>
<path d="M49.7596 3.85938H47.8303V5.78863H49.7596V3.85938Z" fill="#FF4847"/>
<path d="M49.7596 0H47.8303V1.92926H49.7596V0Z" fill="#FF4847"/>
</svg>
