<svg width="277" height="73" viewBox="0 0 277 73" fill="none" xmlns="http://www.w3.org/2000/svg">
<rect y="1" width="70" height="72" rx="8" fill="url(#paint0_linear)"/>
<path d="M89.12 18.448H111.248V22.576H94.016V33.184H106.88V37.264H94.016V47.92H111.248V52H89.12V18.448ZM128.74 18.448H133.444L146.836 52H141.844L138.484 43.648H123.652L120.388 52H115.348L128.74 18.448ZM137.14 39.568L131.092 23.872L125.044 39.568H137.14ZM159.276 52.72C157.356 52.72 155.452 52.544 153.564 52.192C151.708 51.872 150.188 51.424 149.004 50.848V46.432C152.076 47.872 155.388 48.592 158.94 48.592C163.932 48.592 166.428 46.912 166.428 43.552C166.428 42.4 166.156 41.472 165.612 40.768C165.068 40.064 164.284 39.456 163.26 38.944C162.236 38.4 160.572 37.664 158.268 36.736C155.1 35.456 152.812 34.048 151.404 32.512C149.996 30.976 149.292 29.04 149.292 26.704C149.292 24.944 149.772 23.392 150.732 22.048C151.692 20.672 153.036 19.616 154.764 18.88C156.492 18.112 158.476 17.728 160.716 17.728C162.54 17.728 164.188 17.872 165.66 18.16C167.132 18.448 168.572 18.912 169.98 19.552V23.776C167.196 22.528 164.38 21.904 161.532 21.904C159.228 21.904 157.468 22.32 156.252 23.152C155.036 23.984 154.428 25.168 154.428 26.704C154.428 27.76 154.684 28.656 155.196 29.392C155.74 30.096 156.524 30.736 157.548 31.312C158.604 31.856 160.156 32.544 162.204 33.376C164.476 34.304 166.268 35.184 167.58 36.016C168.892 36.848 169.884 37.872 170.556 39.088C171.26 40.272 171.612 41.76 171.612 43.552C171.612 46.464 170.572 48.72 168.492 50.32C166.412 51.92 163.34 52.72 159.276 52.72ZM176.87 18.448H181.814V52H176.87V18.448ZM188.073 18.448H210.201V22.576H192.969V33.184H205.833V37.264H192.969V47.92H210.201V52H188.073V18.448ZM227.693 18.448H232.397L245.789 52H240.797L237.437 43.648H222.605L219.341 52H214.301L227.693 18.448ZM236.093 39.568L230.045 23.872L223.997 39.568H236.093ZM253.569 22.576H243.153V18.448H268.929V22.576H258.513V52H253.569V22.576Z" fill="white"/>
<g clip-path="url(#clip0)">
<path d="M57.7514 53.8118L38.9297 34.99L16.9397 13H15.2212L14.8703 13.8917C13.9441 16.2452 13.5484 18.6523 13.7261 20.8525C13.9286 23.3605 14.8813 25.5318 16.4816 27.1321L33.6481 44.2986L35.9124 42.0344L51.7828 59.7806C53.3616 61.3593 56.0789 61.4531 57.7514 59.7806C59.3971 58.1349 59.3971 55.4574 57.7514 53.8118Z" fill="white"/>
<path d="M25.6933 40.3223L12.2485 53.7671C10.603 55.4126 10.603 58.0901 12.2485 59.7356C13.8117 61.2988 16.5159 61.4368 18.2171 59.7356L31.6619 46.2908L25.6933 40.3223Z" fill="white"/>
<path d="M56.9612 20.9924L49.3346 28.619L47.3449 26.6294L54.9716 19.0028L52.982 17.0132L45.3554 24.6398L43.3659 22.6502L50.9925 15.0236L49.0031 13.0342L39.0553 22.982C37.8383 24.199 37.1116 25.8148 37.0089 27.5322C36.9829 27.9672 36.8843 28.3952 36.7207 28.8023L43.1828 35.2644C43.5898 35.1006 44.0179 35.0021 44.4529 34.9761C46.1702 34.8736 47.7861 34.1468 49.0031 32.9298L58.9509 22.9821L56.9612 20.9924Z" fill="white"/>
</g>
<defs>
<linearGradient id="paint0_linear" x1="-4.16326e-07" y1="36.3898" x2="70" y2="36.3898" gradientUnits="userSpaceOnUse">
<stop stop-color="#FF4747"/>
<stop offset="1" stop-color="#FF8329"/>
</linearGradient>
<clipPath id="clip0">
<rect width="48" height="48" fill="white" transform="translate(11 13)"/>
</clipPath>
</defs>
</svg>
